DAB501: Final Project
…
Extracting all the rows corresponding to these outliers:

out <- boxplot.stats(ames$Sale_Price)$out
out_ind <- which(ames$Sale_Price %in% c(out))
ames[out_ind,]

## # A tibble: 135 x 74
##    MS_SubClass      MS_Zoning    Lot_Frontage Lot_Area Street Alley  Lot_Shape  
##    <fct>            <fct>               <dbl>    <int> <fct>  <fct>  <fct>      
##  1 Two_Story_1946_~ Residential~           47    53504 Pave   No_Al~ Moderately~
##  2 One_Story_1946_~ Residential~           88    11394 Pave   No_Al~ Regular    
##  3 Two_Story_1946_~ Residential~          102    12858 Pave   No_Al~ Slightly_I~
##  4 One_Story_1946_~ Residential~           83    10159 Pave   No_Al~ Slightly_I~
##  5 One_Story_1946_~ Residential~          100    12919 Pave   No_Al~ Slightly_I~
##  6 One_Story_1946_~ Residential~          110    14300 Pave   No_Al~ Regular    
##  7 Two_Story_1946_~ Residential~           60    17433 Pave   No_Al~ Moderately~
##  8 One_and_Half_St~ Residential~           56    14720 Pave   No_Al~ Slightly_I~
##  9 Two_Story_1946_~ Residential~           85    13143 Pave   No_Al~ Slightly_I~
## 10 One_Story_1946_~ Residential~           89    13214 Pave   No_Al~ Slightly_I~
## # ... with 125 more rows, and 67 more variables: Land_Contour <fct>,
## #   Utilities <fct>, Lot_Config <fct>, Land_Slope <fct>, Neighborhood <fct>,
## #   Condition_1 <fct>, Condition_2 <fct>, Bldg_Type <fct>, House_Style <fct>,
## #   Overall_Cond <fct>, Year_Built <int>, Year_Remod_Add <int>,
## #   Roof_Style <fct>, Roof_Matl <fct>, Exterior_1st <fct>, Exterior_2nd <fct>,
## #   Mas_Vnr_Type <fct>, Mas_Vnr_Area <dbl>, Exter_Cond <fct>, Foundation <fct>,
## #   Bsmt_Cond <fct>, Bsmt_Exposure <fct>, BsmtFin_Type_1 <fct>,
## #   BsmtFin_SF_1 <dbl>, BsmtFin_Type_2 <fct>, BsmtFin_SF_2 <dbl>,
## #   Bsmt_Unf_SF <dbl>, Total_Bsmt_SF <dbl>, Heating <fct>, Heating_QC <fct>,
…
It is evident from the line plot that houses with central air have a higher avg sale price than those which do not have central air conditioning. Graph also hows that avg sale price increases with the number of rooms.

We can also get the Avg prices manually

ames %>% group_by(TotRms_AbvGrd, Central_Air) %>%
  summarize(Avg_Price=mean(Sale_Price)) %>% arrange(desc(Avg_Price))

## `summarise()` has grouped output by 'TotRms_AbvGrd'. You can override using the `.groups` argument.

## # A tibble: 23 x 3
## # Groups:   TotRms_AbvGrd [13]
##    TotRms_AbvGrd Central_Air Avg_Price
##            <int> <fct>           <dbl>
##  1            11 Y             353957 
##  2            10 Y             290527.
##  3            12 Y             283349.
##  4             9 Y             263678.
##  5             8 Y             226102.
##  6            13 Y             205000 
##  7             7 Y             201967.
##  8            14 Y             200000 
##  9             6 Y             166733.
## 10            10 N             152056.
## # ... with 13 more rows
…
